Introduction • tiledbsc
…
TileDB API access

You can also use the tiledb_array() method to directly access the underlying arrays using the standard TileDB API, providing the full functionality of the tiledb package. For example, let’s query the obs array and retrieve a subset of cells that match our QC criteria:

obs_array <- scgroup_obs$tiledb_array(
  return_as = "tibble",
  attrs = c("nCount_RNA", "nFeature_RNA"),
  query_condition = parse_query_condition(nFeature_RNA < 2500)
)

obs_array[]
#> # A tibble: 80 × 3
#>    obs_id         nCount_RNA nFeature_RNA
#>    <chr>               <dbl>        <int>
#>  1 AAATTCGAATCACG        327           62
#>  2 AAGCAAGAGCTTAG        126           48
#>  3 AAGCGACTTTGACG        443           77
#>  4 AATGCGTGGACGGA        389           73
#>  5 AATGTTGACAGTCA        100           41
#>  6 ACAGGTACTGGTGT        151           59
#>  7 ACCAGTGAATACCG        417           75
#>  8 ACGTGATGCCATGA        709           94
#>  9 ACTCGCACGAAAGT        231           49
#> 10 AGAGATGATCTCGC        191           61
#> # … with 70 more rows
…
